^C:\REPOS\ARENA GAME V5\ARENA GAME\DEBUG\ARENA GAME.EXE.INTERMEDIATE.MANIFEST
C:\REPOS\ARENA GAME V5\ARENA GAME\DEBUG\ARENA GAME.EXE.EMBED.MANIFEST
^C:\REPOS\ARENA GAME V4.5\ARENA GAME\DEBUG\ARENA GAME.EXE.INTERMEDIATE.MANIFEST
C:\REPOS\ARENA GAME V4.5\ARENA GAME\DEBUG\ARENA GAME.EXE.EMBED.MANIFEST
^C:\REPOS\ARENA-GAME-V5\ARENA-GAME-V5\ARENA GAME\DEBUG\ARENA GAME.EXE.INTERMEDIATE.MANIFEST
C:\REPOS\ARENA-GAME-V5\ARENA-GAME-V5\ARENA GAME\DEBUG\ARENA GAME.EXE.EMBED.MANIFEST
^C:\USERS\OWNER\DESKTOP\STEVEV5\ARENA-GAME-V5\ARENA-GAME-V5\ARENA GAME\DEBUG\ARENA GAME.EXE.INTERMEDIATE.MANIFEST
C:\USERS\OWNER\DESKTOP\STEVEV5\ARENA-GAME-V5\ARENA-GAME-V5\ARENA GAME\DEBUG\ARENA GAME.EXE.EMBED.MANIFEST
